T1,S
T2,S
T3,S
T4,S
T5,S
T6,S
T7,S
T8,S
T9,S
T10,S
T11,S
T12,S
T13,S
T14,S
T15,S
T16,S
T17,S
T18,S
T19,S
T20,S
T21,S
T22,S
T23,S
T24,S
T25,S
T26,S
T27,S
T28,S
T29,S
T30,S
T31,S
T32,S
T33,S
T34,S
T35,S
T36,S
T37,S
T38,S
T39,S
T40,S
T41,S
T42,S
T43,S
T44,S
T45,S
T46,S
T47,S
T48,S
T49,S
T50,S
T51,S
T52,S
T53,S
T54,S
T55,S
T56,S
T57,S
T58,S
T59,S
T60,S
T61,S
T62,S
T63,S
T64,S
T65,S
T66,S
T67,S
T68,S
T69,S
T70,S
T71,S
T72,S
T73,S
T74,S
T75,S
T76,S
T77,S
T78,S
T79,S
T80,S
T81,S
T82,S
T83,S
T84,S
T85,S
T86,S
T87,S
T88,S
T89,S
T90,S
T91,S
T92,S
T93,S
T94,S
T95,S
T96,S
T97,S
T98,S
T99,S
T100,S
K