Izvajanje test-C-6
  Log datoteka: test-C-6.log
  Izhod programa: test-C-6.out
  Ukazna vrstica: java Naloga1 count ms up
  Izhodni status: 0
  Realni cas izvajanja: 518
  Uporabniski cas izvajanja: 780
  Sistemski cas izvajanja: 73
  Procesorski cas izvajanja: 853
Preverjanje test-C-6
  Izhodni status: ok
  Standardni izhod: ok
  Tocke: 1
